sim/tb_jtag/wf_jtag.vcd
$date
	Sat Mar 16 12:07:45 2024
$end
$version
	QuestaSim Version 10.4c
$end
$timescale
	10ps
$end

$scope module tb_jtag $end
$var parameter 32 ! JTAG_CYCLE $end
$var parameter 4 " VERSION $end
$var parameter 16 # PART_NUMBER $end
$var parameter 11 $ MANUFLD $end
$var reg 1 % trstn $end
$var reg 1 & tck $end
$var reg 1 ' tms $end
$var reg 1 ( tdi $end
$var reg 1 ) jtag_tdo $end
$var reg 1 * tdo_enable $end
$var reg 1 + dmi_ack $end
$var reg 1 , dmi_op $end
$var reg 32 - dmi_rdata [31:0] $end
$var reg 1 . dmi_rdata_valid $end
$var reg 32 / dmi_addr [31:0] $end
$var reg 32 0 dmi_wdata [31:0] $end
$var reg 1 1 dmi_we $end
$var reg 1 2 dmi_req $end
$var reg 4 3 dtmcs_version [3:0] $end
$var reg 6 4 dtmcs_abits [5:0] $end
$var reg 2 5 dtmcs_dmistat [1:0] $end
$var reg 3 6 dtmcs_idle [2:0] $end
$var reg 1 7 dtmcs_dmireset $end
$var reg 1 8 dtmcs_dmihardreset $end
$var reg 1 9 tdo $end
$var reg 5 : tdo_5bit [4:0] $end
$var reg 66 ; tdo_66bit [65:0] $end

$scope task init_dtmcs $end
$upscope $end

$scope task init_dmi $end
$upscope $end

$scope task init_jtag $end
$upscope $end

$scope task cmd_reset $end
$upscope $end

$scope task cmd_ir $end
$var reg 5 < ir [4:0] $end
$upscope $end

$scope task cmd_dmi $end
$var reg 66 = dmi [65:0] $end
$upscope $end

$scope task dmi_response $end
$var reg 2 > op [1:0] $end
$var reg 33 ? rddata [32:0] $end
$upscope $end

$scope module i_jtag $end
$var parameter 4 @ VERSION $end
$var parameter 16 A PART_NUMBER $end
$var parameter 11 B MANUFLD $end
$var parameter 4 C STATE_TEST_LOGIC_RESET $end
$var parameter 4 D STATE_RUN_TEST_IDLE $end
$var parameter 4 E STATE_SELECT_DR_SCAN $end
$var parameter 4 F STATE_CAPTURE_DR $end
$var parameter 4 G STATE_SHIFT_DR $end
$var parameter 4 H STATE_EXIT1_DR $end
$var parameter 4 I STATE_PAUSE_DR $end
$var parameter 4 J STATE_EXIT2_DR $end
$var parameter 4 K STATE_UPDATE_DR $end
$var parameter 4 L STATE_SELECT_IR_SCAN $end
$var parameter 4 M STATE_CAPTURE_IR $end
$var parameter 4 N STATE_SHIFT_IR $end
$var parameter 4 O STATE_EXIT1_IR $end
$var parameter 4 P STATE_PAUSE_IR $end
$var parameter 4 Q STATE_EXIT2_IR $end
$var parameter 4 R STATE_UPDATE_IR $end
$var wire 1 S jtag_trstn_i $end
$var wire 1 T jtag_tck_i $end
$var wire 1 U jtag_tms_i $end
$var wire 1 V jtag_tdi_i $end
$var reg 1 W jtag_tdo_o $end
$var reg 1 X jtag_tdo_enable_o $end
$var wire 1 Y dmi_ack_i $end
$var wire 1 Z dmi_op_i $end
$var wire 1 [ dmi_rdata_i [31] $end
$var wire 1 \ dmi_rdata_i [30] $end
$var wire 1 ] dmi_rdata_i [29] $end
$var wire 1 ^ dmi_rdata_i [28] $end
$var wire 1 _ dmi_rdata_i [27] $end
$var wire 1 ` dmi_rdata_i [26] $end
$var wire 1 a dmi_rdata_i [25] $end
$var wire 1 b dmi_rdata_i [24] $end
$var wire 1 c dmi_rdata_i [23] $end
$var wire 1 d dmi_rdata_i [22] $end
$var wire 1 e dmi_rdata_i [21] $end
$var wire 1 f dmi_rdata_i [20] $end
$var wire 1 g dmi_rdata_i [19] $end
$var wire 1 h dmi_rdata_i [18] $end
$var wire 1 i dmi_rdata_i [17] $end
$var wire 1 j dmi_rdata_i [16] $end
$var wire 1 k dmi_rdata_i [15] $end
$var wire 1 l dmi_rdata_i [14] $end
$var wire 1 m dmi_rdata_i [13] $end
$var wire 1 n dmi_rdata_i [12] $end
$var wire 1 o dmi_rdata_i [11] $end
$var wire 1 p dmi_rdata_i [10] $end
$var wire 1 q dmi_rdata_i [9] $end
$var wire 1 r dmi_rdata_i [8] $end
$var wire 1 s dmi_rdata_i [7] $end
$var wire 1 t dmi_rdata_i [6] $end
$var wire 1 u dmi_rdata_i [5] $end
$var wire 1 v dmi_rdata_i [4] $end
$var wire 1 w dmi_rdata_i [3] $end
$var wire 1 x dmi_rdata_i [2] $end
$var wire 1 y dmi_rdata_i [1] $end
$var wire 1 z dmi_rdata_i [0] $end
$var wire 1 { dmi_rdata_valid_i $end
$var reg 32 | dmi_addr_o [31:0] $end
$var reg 32 } dmi_wdata_o [31:0] $end
$var reg 1 ~ dmi_we_o $end
$var reg 1 !! dmi_req_o $end
$var wire 1 "! dtmcs_version_i [3] $end
$var wire 1 #! dtmcs_version_i [2] $end
$var wire 1 $! dtmcs_version_i [1] $end
$var wire 1 %! dtmcs_version_i [0] $end
$var wire 1 &! dtmcs_abits_i [5] $end
$var wire 1 '! dtmcs_abits_i [4] $end
$var wire 1 (! dtmcs_abits_i [3] $end
$var wire 1 )! dtmcs_abits_i [2] $end
$var wire 1 *! dtmcs_abits_i [1] $end
$var wire 1 +! dtmcs_abits_i [0] $end
$var wire 1 ,! dtmcs_dmistat_i [1] $end
$var wire 1 -! dtmcs_dmistat_i [0] $end
$var wire 1 .! dtmcs_idle_i [2] $end
$var wire 1 /! dtmcs_idle_i [1] $end
$var wire 1 0! dtmcs_idle_i [0] $end
$var reg 1 1! dtmcs_dmireset_o $end
$var reg 1 2! dtmcs_dmihardreset_o $end
$var reg 4 3! cr_state [3:0] $end
$var reg 4 4! nx_state [3:0] $end
$var reg 1 5! select_ir $end
$var reg 1 6! capture_ir $end
$var reg 1 7! shift_ir $end
$var reg 1 8! update_ir $end
$var reg 1 9! select_dr $end
$var reg 1 :! capture_dr $end
$var reg 1 ;! shift_dr $end
$var reg 1 <! update_dr $end
$var reg 1 =! tckn $end
$var reg 5 >! shift_out_ir [4:0] $end
$var reg 5 ?! nx_shift_out_ir [4:0] $end
$var reg 5 @! update_out_ir [4:0] $end
$var reg 5 A! nx_update_out_ir [4:0] $end
$var reg 1 B! select_bypass $end
$var reg 1 C! select_idcode $end
$var reg 1 D! select_dtmcs $end
$var reg 1 E! select_dmi $end
$var reg 1 F! capture_bypass $end
$var reg 1 G! shift_bypass $end
$var reg 1 H! capture_idcode $end
$var reg 1 I! shift_idcode $end
$var reg 1 J! capture_dtmcs $end
$var reg 1 K! shift_dtmcs $end
$var reg 1 L! update_dtmcs $end
$var reg 1 M! capture_dmi $end
$var reg 1 N! shift_dmi $end
$var reg 1 O! update_dmi $end
$var reg 1 P! update_dmi_wr $end
$var reg 1 Q! shift_out_bypass $end
$var reg 1 R! nx_shift_out_bypass $end
$var reg 32 S! shift_out_idcode [31:0] $end
$var reg 32 T! nx_shift_out_idcode [31:0] $end
$var reg 32 U! shift_out_dtmcs [31:0] $end
$var reg 32 V! nx_shift_out_dtmcs [31:0] $end
$var reg 32 W! dtmcs_reg_in [31:0] $end
$var reg 66 X! shift_out_dmi [65:0] $end
$var reg 66 Y! nx_shift_out_dmi [65:0] $end
$var reg 66 Z! update_out_dmi [65:0] $end
$var reg 66 [! nx_update_out_dmi [65:0] $end
$var reg 32 \! dmi_reg_in [31:0] $end
$var reg 32 ]! dmi_reg_in_lat [31:0] $end
$var reg 1 ^! dmi_rdata_valid_lat $end
$var reg 1 _! dmi_rdata_valid_rising_edgedet $end
$var reg 32 `! rdata [31:0] $end
$var reg 32 a! nx_rdata [31:0] $end
$var reg 1 b! dmi_ack_lat $end
$var reg 1 c! req_clr $end
$var reg 1 d! req_set $end
$var reg 1 e! nx_req $end
$var reg 1 f! nx_tdo $end
$var reg 1 g! nx_tdo_enable $end
$upscope $end
$upscope $end
$enddefinitions $end
#0
$dumpvars
1%
0&
0'
0(
x)
x*
0+
0,
b0 -
0.
bx /
bx 0
x1
x2
b0 3
b110010 4
b0 5
b1 6
x7
x8
x9
bx :
bx ;
xW
xX
bx |
bx }
x~
x!!
x1!
x2!
bx 3!
bx 4!
x5!
x6!
x7!
x8!
x9!
x:!
x;!
x<!
1=!
bx >!
bx ?!
bx @!
bx A!
xB!
xC!
xD!
xE!
xF!
xG!
xH!
xI!
xJ!
xK!
xL!
xM!
xN!
xO!
xP!
xQ!
xR!
bx S!
bx T!
bx U!
bx V!
b0xx0001001100100000 W!
bx X!
bx Y!
bx Z!
bx [!
bx \!
bx ]!
x^!
0_!
bx `!
bx a!
xb!
0c!
xd!
xe!
xf!
xg!
bx <
bx =
bx >
bx ?
b1100100 !
b0 "
b1 #
b10010 $
b0 @
b1 A
b10010 B
b0 C
b1 D
b10 E
b11 F
b100 G
b101 H
b110 I
b111 J
b1000 K
b1001 L
b1010 M
b1011 N
b1100 O
b1101 P
b1110 Q
b1111 R
10!
0/!
0.!
0-!
0,!
0+!
1*!
0)!
0(!
1'!
1&!
0%!
0$!
0#!
0"!
0{
0z
0y
0x
0w
0v
0u
0t
0s
0r
0q
0p
0o
0n
0m
0l
0k
0j
0i
0h
0g
0f
0e
0d
0c
0b
0a
0`
0_
0^
0]
0\
0[
0Z
0Y
0V
0U
0T
1S
$end
#5000
1&
1T
0=!
0^!
0b!
#10000
0&
0T
1=!
#15000
1&
1T
0=!
#20000
0&
0T
1=!
#25000
1&
1T
0=!
0%
0S
b0 3!
b0 >!
b0 @!
0Q!
b0 S!
b0 U!
b0 X!
b0 Z!
b0 ]!
b0 `!
0!!
0W
0X
0*
0)
02
b0 a!
bx0 \!
b0 |
b0 }
0~
b0xxxxxxxxxxxxxxxxxxxxxxxxxxxxxxx0 Y!
b0xxxxxxxxxxxxxxxxxxxxxxxxxxxxxxxxxx [!
b0xx [!
0O!
0P!
b0 [!
b0xx000x00xx00x00000 V!
02!
01!
b0x000000x00x0 T!
0R!
1B!
0C!
0D!
0E!
b0x ?!
b0 A!
0f!
05!
06!
07!
08!
09!
0:!
0;!
0<!
0g!
0G!
0F!
b0 ?!
0M!
0N!
0J!
0K!
0L!
0H!
0I!
07
08
b1001100100000 W!
0d!
01
b0 0
b0 /
b0 \!
z9
0e!
b0 T!
b0 V!
b0 Y!
b1 4!
#30000
0&
0T
1=!
#35000
1&
1T
0=!
#40000
0&
0T
1=!
#45000
1&
1T
0=!
#50000
0&
0T
1=!
#55000
1&
1T
0=!
#60000
0&
0T
1=!
#65000
1&
1T
0=!
1%
1S
#70000
0&
0T
1=!
#75000
1&
1T
0=!
b1 3!
#80000
0&
0T
1=!
#85000
b10001 <
1&
1T
0=!
#90000
0&
0T
1=!
1'
1U
b10 4!
#95000
1&
1T
0=!
b10 3!
b1001 4!
#100000
0&
0T
1=!
#105000
1&
1T
0=!
b1001 3!
b0 4!
#110000
0&
0T
1=!
0'
0U
b1010 4!
#115000
1&
1T
0=!
b1010 3!
15!
16!
b1 ?!
b1011 4!
#120000
0&
0T
1=!
#125000
1&
1T
0=!
b1 >!
b1011 3!
06!
17!
1g!
b0 ?!
1f!
#130000
0&
0T
1=!
1(
1V
b10000 ?!
1W
1X
1*
1)
19
#135000
1&
1T
0=!
bx1 :
b10000 >!
b11000 ?!
0f!
#140000
0&
0T
1=!
0(
0V
b1000 ?!
0W
0)
09
#145000
1&
1T
0=!
bx01 :
b1000 >!
b100 ?!
#150000
0&
0T
1=!
#155000
1&
1T
0=!
bx001 :
b100 >!
b10 ?!
#160000
0&
0T
1=!
#165000
1&
1T
0=!
bx0001 :
b10 >!
b1 ?!
#170000
0&
0T
1=!
1'
1(
1V
b10001 ?!
1U
b1100 4!
#175000
1&
1T
0=!
b1 :
b1100 3!
b10001 >!
b11000 ?!
1f!
07!
0g!
b10001 ?!
b1111 4!
#180000
0&
0T
1=!
0'
0U
b1101 4!
0X
1W
1)
0*
z9
#185000
1&
1T
0=!
b1101 3!
#190000
0&
0T
1=!
1'
1U
b1110 4!
#195000
1&
1T
0=!
b1110 3!
b1111 4!
#200000
0&
0T
1=!
#205000
1&
1T
0=!
b1111 3!
18!
b10001 A!
b1001 4!
#210000
0&
0T
1=!
0'
0U
b1 4!
#215000
1&
1T
0=!
b10001 @!
b1 3!
05!
08!
0B!
1E!
0f!
#220000
0&
0T
1=!
0W
0)
#225000
1&
1T
0=!
#230000
b10100000000000000000000000001000110010 =
0&
0T
1=!
1'
1U
b10 4!
#235000
1&
1T
0=!
b10 3!
b1001 4!
#240000
0&
0T
1=!
0'
0U
b11 4!
#245000
1&
1T
0=!
b11 3!
19!
1:!
1M!
b100 4!
#250000
0&
0T
1=!
#255000
1&
1T
0=!
b100 3!
0:!
1;!
1g!
1N!
0M!
b100000000000000000000000000000000000000000000000000000000000000000 Y!
#260000
0&
0T
1=!
0(
0V
b0 Y!
1X
1*
09
#265000
1&
1T
0=!
bx0 ;
#270000
0&
0T
1=!
1(
1V
b100000000000000000000000000000000000000000000000000000000000000000 Y!
#275000
1&
1T
0=!
bx00 ;
b100000000000000000000000000000000000000000000000000000000000000000 X!
b110000000000000000000000000000000000000000000000000000000000000000 Y!
#280000
0&
0T
1=!
0(
0V
b10000000000000000000000000000000000000000000000000000000000000000 Y!
#285000
1&
1T
0=!
bx000 ;
b10000000000000000000000000000000000000000000000000000000000000000 X!
b1000000000000000000000000000000000000000000000000000000000000000 Y!
#290000
0&
0T
1=!
#295000
1&
1T
0=!
bx0000 ;
b1000000000000000000000000000000000000000000000000000000000000000 X!
b100000000000000000000000000000000000000000000000000000000000000 Y!
#300000
0&
0T
1=!
1(
1V
b100100000000000000000000000000000000000000000000000000000000000000 Y!
#305000
1&
1T
0=!
bx00000 ;
b100100000000000000000000000000000000000000000000000000000000000000 X!
b110010000000000000000000000000000000000000000000000000000000000000 Y!
#310000
0&
0T
1=!
#315000
1&
1T
0=!
bx000000 ;
b110010000000000000000000000000000000000000000000000000000000000000 X!
b111001000000000000000000000000000000000000000000000000000000000000 Y!
#320000
0&
0T
1=!
0(
0V
b11001000000000000000000000000000000000000000000000000000000000000 Y!
#325000
1&
1T
0=!
bx0000000 ;
b11001000000000000000000000000000000000000000000000000000000000000 X!
b1100100000000000000000000000000000000000000000000000000000000000 Y!
#330000
0&
0T
1=!
#335000
1&
1T
0=!
bx00000000 ;
b1100100000000000000000000000000000000000000000000000000000000000 X!
b110010000000000000000000000000000000000000000000000000000000000 Y!
#340000
0&
0T
1=!
#345000
1&
1T
0=!
bx000000000 ;
b110010000000000000000000000000000000000000000000000000000000000 X!
b11001000000000000000000000000000000000000000000000000000000000 Y!
#350000
0&
0T
1=!
1(
1V
b100011001000000000000000000000000000000000000000000000000000000000 Y!
#355000
1&
1T
0=!
bx0000000000 ;
b100011001000000000000000000000000000000000000000000000000000000000 X!
b110001100100000000000000000000000000000000000000000000000000000000 Y!
#360000
0&
0T
1=!
0(
0V
b10001100100000000000000000000000000000000000000000000000000000000 Y!
#365000
1&
1T
0=!
bx00000000000 ;
b10001100100000000000000000000000000000000000000000000000000000000 X!
b1000110010000000000000000000000000000000000000000000000000000000 Y!
#370000
0&
0T
1=!
#375000
1&
1T
0=!
bx000000000000 ;
b1000110010000000000000000000000000000000000000000000000000000000 X!
b100011001000000000000000000000000000000000000000000000000000000 Y!
#380000
0&
0T
1=!
#385000
1&
1T
0=!
bx0000000000000 ;
b100011001000000000000000000000000000000000000000000000000000000 X!
b10001100100000000000000000000000000000000000000000000000000000 Y!
#390000
0&
0T
1=!
#395000
1&
1T
0=!
bx00000000000000 ;
b10001100100000000000000000000000000000000000000000000000000000 X!
b1000110010000000000000000000000000000000000000000000000000000 Y!
#400000
0&
0T
1=!
#405000
1&
1T
0=!
bx000000000000000 ;
b1000110010000000000000000000000000000000000000000000000000000 X!
b100011001000000000000000000000000000000000000000000000000000 Y!
#410000
0&
0T
1=!
#415000
1&
1T
0=!
bx0000000000000000 ;
b100011001000000000000000000000000000000000000000000000000000 X!
b10001100100000000000000000000000000000000000000000000000000 Y!
#420000
0&
0T
1=!
#425000
1&
1T
0=!
bx00000000000000000 ;
b10001100100000000000000000000000000000000000000000000000000 X!
b1000110010000000000000000000000000000000000000000000000000 Y!
#430000
0&
0T
1=!
#435000
1&
1T
0=!
bx000000000000000000 ;
b1000110010000000000000000000000000000000000000000000000000 X!
b100011001000000000000000000000000000000000000000000000000 Y!
#440000
0&
0T
1=!
#445000
1&
1T
0=!
bx0000000000000000000 ;
b100011001000000000000000000000000000000000000000000000000 X!
b10001100100000000000000000000000000000000000000000000000 Y!
#450000
0&
0T
1=!
#455000
1&
1T
0=!
bx00000000000000000000 ;
b10001100100000000000000000000000000000000000000000000000 X!
b1000110010000000000000000000000000000000000000000000000 Y!
#460000
0&
0T
1=!
#465000
1&
1T
0=!
bx000000000000000000000 ;
b1000110010000000000000000000000000000000000000000000000 X!
b100011001000000000000000000000000000000000000000000000 Y!
#470000
0&
0T
1=!
#475000
1&
1T
0=!
bx0000000000000000000000 ;
b100011001000000000000000000000000000000000000000000000 X!
b10001100100000000000000000000000000000000000000000000 Y!
#480000
0&
0T
1=!
#485000
1&
1T
0=!
bx00000000000000000000000 ;
b10001100100000000000000000000000000000000000000000000 X!
b1000110010000000000000000000000000000000000000000000 Y!
#490000
0&
0T
1=!
#495000
1&
1T
0=!
bx000000000000000000000000 ;
b1000110010000000000000000000000000000000000000000000 X!
b100011001000000000000000000000000000000000000000000 Y!
#500000
0&
0T
1=!
#505000
1&
1T
0=!
bx0000000000000000000000000 ;
b100011001000000000000000000000000000000000000000000 X!
b10001100100000000000000000000000000000000000000000 Y!
#510000
0&
0T
1=!
#515000
1&
1T
0=!
bx00000000000000000000000000 ;
b10001100100000000000000000000000000000000000000000 X!
b1000110010000000000000000000000000000000000000000 Y!
#520000
0&
0T
1=!
#525000
1&
1T
0=!
bx000000000000000000000000000 ;
b1000110010000000000000000000000000000000000000000 X!
b100011001000000000000000000000000000000000000000 Y!
#530000
0&
0T
1=!
#535000
1&
1T
0=!
bx0000000000000000000000000000 ;
b100011001000000000000000000000000000000000000000 X!
b10001100100000000000000000000000000000000000000 Y!
#540000
0&
0T
1=!
#545000
1&
1T
0=!
bx00000000000000000000000000000 ;
b10001100100000000000000000000000000000000000000 X!
b1000110010000000000000000000000000000000000000 Y!
#550000
0&
0T
1=!
#555000
1&
1T
0=!
bx000000000000000000000000000000 ;
b1000110010000000000000000000000000000000000000 X!
b100011001000000000000000000000000000000000000 Y!
#560000
0&
0T
1=!
#565000
1&
1T
0=!
bx0000000000000000000000000000000 ;
b100011001000000000000000000000000000000000000 X!
b10001100100000000000000000000000000000000000 Y!
#570000
0&
0T
1=!
#575000
1&
1T
0=!
bx00000000000000000000000000000000 ;
b10001100100000000000000000000000000000000000 X!
b1000110010000000000000000000000000000000000 Y!
#580000
0&
0T
1=!
#585000
1&
1T
0=!
bx000000000000000000000000000000000 ;
b1000110010000000000000000000000000000000000 X!
b100011001000000000000000000000000000000000 Y!
#590000
0&
0T
1=!
#595000
1&
1T
0=!
bx0000000000000000000000000000000000 ;
b100011001000000000000000000000000000000000 X!
b10001100100000000000000000000000000000000 Y!
#600000
0&
0T
1=!
#605000
1&
1T
0=!
bx00000000000000000000000000000000000 ;
b10001100100000000000000000000000000000000 X!
b1000110010000000000000000000000000000000 Y!
#610000
0&
0T
1=!
1(
1V
b100000000000000000000000001000110010000000000000000000000000000000 Y!
#615000
1&
1T
0=!
bx000000000000000000000000000000000000 ;
b100000000000000000000000001000110010000000000000000000000000000000 X!
b110000000000000000000000000100011001000000000000000000000000000000 Y!
#620000
0&
0T
1=!
0(
0V
b10000000000000000000000000100011001000000000000000000000000000000 Y!
#625000
1&
1T
0=!
bx0000000000000000000000000000000000000 ;
b10000000000000000000000000100011001000000000000000000000000000000 X!
b1000000000000000000000000010001100100000000000000000000000000000 Y!
#630000
0&
0T
1=!
1(
1V
b101000000000000000000000000010001100100000000000000000000000000000 Y!
#635000
1&
1T
0=!
bx00000000000000000000000000000000000000 ;
b101000000000000000000000000010001100100000000000000000000000000000 X!
b110100000000000000000000000001000110010000000000000000000000000000 Y!
#640000
0&
0T
1=!
0(
0V
b10100000000000000000000000001000110010000000000000000000000000000 Y!
#645000
1&
1T
0=!
bx000000000000000000000000000000000000000 ;
b10100000000000000000000000001000110010000000000000000000000000000 X!
b1010000000000000000000000000100011001000000000000000000000000000 Y!
#650000
0&
0T
1=!
#655000
1&
1T
0=!
bx0000000000000000000000000000000000000000 ;
b1010000000000000000000000000100011001000000000000000000000000000 X!
b101000000000000000000000000010001100100000000000000000000000000 Y!
#660000
0&
0T
1=!
#665000
1&
1T
0=!
bx00000000000000000000000000000000000000000 ;
b101000000000000000000000000010001100100000000000000000000000000 X!
b10100000000000000000000000001000110010000000000000000000000000 Y!
#670000
0&
0T
1=!
#675000
1&
1T
0=!
bx000000000000000000000000000000000000000000 ;
b10100000000000000000000000001000110010000000000000000000000000 X!
b1010000000000000000000000000100011001000000000000000000000000 Y!
#680000
0&
0T
1=!
#685000
1&
1T
0=!
bx0000000000000000000000000000000000000000000 ;
b1010000000000000000000000000100011001000000000000000000000000 X!
b101000000000000000000000000010001100100000000000000000000000 Y!
#690000
0&
0T
1=!
#695000
1&
1T
0=!
bx00000000000000000000000000000000000000000000 ;
b101000000000000000000000000010001100100000000000000000000000 X!
b10100000000000000000000000001000110010000000000000000000000 Y!
#700000
0&
0T
1=!
#705000
1&
1T
0=!
bx000000000000000000000000000000000000000000000 ;
b10100000000000000000000000001000110010000000000000000000000 X!
b1010000000000000000000000000100011001000000000000000000000 Y!
#710000
0&
0T
1=!
#715000
1&
1T
0=!
bx0000000000000000000000000000000000000000000000 ;
b1010000000000000000000000000100011001000000000000000000000 X!
b101000000000000000000000000010001100100000000000000000000 Y!
#720000
0&
0T
1=!
#725000
1&
1T
0=!
bx00000000000000000000000000000000000000000000000 ;
b101000000000000000000000000010001100100000000000000000000 X!
b10100000000000000000000000001000110010000000000000000000 Y!
#730000
0&
0T
1=!
#735000
1&
1T
0=!
bx000000000000000000000000000000000000000000000000 ;
b10100000000000000000000000001000110010000000000000000000 X!
b1010000000000000000000000000100011001000000000000000000 Y!
#740000
0&
0T
1=!
#745000
1&
1T
0=!
bx0000000000000000000000000000000000000000000000000 ;
b1010000000000000000000000000100011001000000000000000000 X!
b101000000000000000000000000010001100100000000000000000 Y!
#750000
0&
0T
1=!
#755000
1&
1T
0=!
bx00000000000000000000000000000000000000000000000000 ;
b101000000000000000000000000010001100100000000000000000 X!
b10100000000000000000000000001000110010000000000000000 Y!
#760000
0&
0T
1=!
#765000
1&
1T
0=!
bx000000000000000000000000000000000000000000000000000 ;
b10100000000000000000000000001000110010000000000000000 X!
b1010000000000000000000000000100011001000000000000000 Y!
#770000
0&
0T
1=!
#775000
1&
1T
0=!
bx0000000000000000000000000000000000000000000000000000 ;
b1010000000000000000000000000100011001000000000000000 X!
b101000000000000000000000000010001100100000000000000 Y!
#780000
0&
0T
1=!
#785000
1&
1T
0=!
bx00000000000000000000000000000000000000000000000000000 ;
b101000000000000000000000000010001100100000000000000 X!
b10100000000000000000000000001000110010000000000000 Y!
#790000
0&
0T
1=!
#795000
1&
1T
0=!
bx000000000000000000000000000000000000000000000000000000 ;
b10100000000000000000000000001000110010000000000000 X!
b1010000000000000000000000000100011001000000000000 Y!
#800000
0&
0T
1=!
#805000
1&
1T
0=!
bx0000000000000000000000000000000000000000000000000000000 ;
b1010000000000000000000000000100011001000000000000 X!
b101000000000000000000000000010001100100000000000 Y!
#810000
0&
0T
1=!
#815000
1&
1T
0=!
bx00000000000000000000000000000000000000000000000000000000 ;
b101000000000000000000000000010001100100000000000 X!
b10100000000000000000000000001000110010000000000 Y!
#820000
0&
0T
1=!
#825000
1&
1T
0=!
bx000000000000000000000000000000000000000000000000000000000 ;
b10100000000000000000000000001000110010000000000 X!
b1010000000000000000000000000100011001000000000 Y!
#830000
0&
0T
1=!
#835000
1&
1T
0=!
bx0000000000000000000000000000000000000000000000000000000000 ;
b1010000000000000000000000000100011001000000000 X!
b101000000000000000000000000010001100100000000 Y!
#840000
0&
0T
1=!
#845000
1&
1T
0=!
bx00000000000000000000000000000000000000000000000000000000000 ;
b101000000000000000000000000010001100100000000 X!
b10100000000000000000000000001000110010000000 Y!
#850000
0&
0T
1=!
#855000
1&
1T
0=!
bx000000000000000000000000000000000000000000000000000000000000 ;
b10100000000000000000000000001000110010000000 X!
b1010000000000000000000000000100011001000000 Y!
#860000
0&
0T
1=!
#865000
1&
1T
0=!
bx0000000000000000000000000000000000000000000000000000000000000 ;
b1010000000000000000000000000100011001000000 X!
b101000000000000000000000000010001100100000 Y!
#870000
0&
0T
1=!
#875000
1&
1T
0=!
bx00000000000000000000000000000000000000000000000000000000000000 ;
b101000000000000000000000000010001100100000 X!
b10100000000000000000000000001000110010000 Y!
#880000
0&
0T
1=!
#885000
1&
1T
0=!
bx000000000000000000000000000000000000000000000000000000000000000 ;
b10100000000000000000000000001000110010000 X!
b1010000000000000000000000000100011001000 Y!
#890000
0&
0T
1=!
#895000
1&
1T
0=!
bx0000000000000000000000000000000000000000000000000000000000000000 ;
b1010000000000000000000000000100011001000 X!
b101000000000000000000000000010001100100 Y!
#900000
0&
0T
1=!
#905000
1&
1T
0=!
bx00000000000000000000000000000000000000000000000000000000000000000 ;
b101000000000000000000000000010001100100 X!
b10100000000000000000000000001000110010 Y!
#910000
0&
0T
1=!
1'
1U
b101 4!
#915000
1&
1T
0=!
b0 ;
b101 3!
b10100000000000000000000000001000110010 X!
b1010000000000000000000000000100011001 Y!
0;!
0g!
0N!
b10100000000000000000000000001000110010 Y!
b1000 4!
#920000
0&
0T
1=!
0'
0U
b110 4!
0X
0*
z9
#925000
1&
1T
0=!
b110 3!
#930000
0&
0T
1=!
1'
1U
b111 4!
#935000
1&
1T
0=!
b111 3!
b1000 4!
#940000
0&
0T
1=!
#945000
1&
1T
0=!
b1000 3!
1<!
1O!
1P!
b1000110000 [!
1d!
b10100000000000000000000000001000110000 [!
b10100000000000000000000000001000110010 [!
1e!
b10 4!
#950000
0&
0T
1=!
0'
0U
b1 4!
#955000
1&
1T
0=!
1!!
b10100000000000000000000000001000110010 Z!
b1 3!
09!
0<!
b1010 |
b10001100 }
1~
12
11
b10001100 0
b1010 /
b100011000 \!
0O!
0P!
0d!
#960000
0&
0T
1=!
#965000
1&
1T
0=!
b100011000 ]!
#970000
0&
0T
1=!
#975000
1&
1T
0=!
#980000
0&
0T
1=!
#985000
1&
1T
0=!
#990000
0&
0T
1=!
#995000
1&
1T
0=!
#1000000
b0 >
b0 ?
0&
0T
1=!
#1005000
1&
1T
0=!
1+
1.
1Y
1{
1_!
1c!
0e!
#1010000
0&
0T
1=!
#1015000
1&
1T
0=!
0!!
1^!
1b!
0c!
0_!
02
#1020000
0&
0T
1=!
#1025000
1&
1T
0=!
#1030000
0&
0T
1=!
#1035000
1&
1T
0=!
#1040000
0&
0T
1=!
#1045000
1&
1T
0=!
#1050000
0&
0T
1=!
#1055000
1&
1T
0=!
0+
0.
0Y
0{
#1060000
0&
0T
1=!
#1065000
1&
1T
0=!
0^!
0b!
#1070000
0&
0T
1=!
#1075000
b100100000000000000000000000001000110001 =
1&
1T
0=!
#1080000
0&
0T
1=!
1'
1U
b10 4!
#1085000
1&
1T
0=!
b10 3!
b1001 4!
#1090000
0&
0T
1=!
0'
0U
b11 4!
#1095000
1&
1T
0=!
b11 3!
19!
1:!
1M!
b100011000 Y!
b100 4!
#1100000
0&
0T
1=!
#1105000
1&
1T
0=!
b100011000 X!
b100 3!
0:!
1;!
1g!
1N!
0M!
b10001100 Y!
#1110000
0&
0T
1=!
1(
1V
b100000000000000000000000000000000000000000000000000000000010001100 Y!
1X
1*
09
#1115000
1&
1T
0=!
b100000000000000000000000000000000000000000000000000000000010001100 X!
b110000000000000000000000000000000000000000000000000000000001000110 Y!
#1120000
0&
0T
1=!
0(
0V
b10000000000000000000000000000000000000000000000000000000001000110 Y!
#1125000
1&
1T
0=!
b10000000000000000000000000000000000000000000000000000000001000110 X!
b1000000000000000000000000000000000000000000000000000000000100011 Y!
#1130000
0&
0T
1=!
#1135000
1&
1T
0=!
b1000000000000000000000000000000000000000000000000000000000100011 X!
b100000000000000000000000000000000000000000000000000000000010001 Y!
1f!
#1140000
0&
0T
1=!
1W
1)
19
#1145000
1&
1T
0=!
b1000 ;
b100000000000000000000000000000000000000000000000000000000010001 X!
b10000000000000000000000000000000000000000000000000000000001000 Y!
#1150000
0&
0T
1=!
1(
1V
b100010000000000000000000000000000000000000000000000000000000001000 Y!
#1155000
1&
1T
0=!
b11000 ;
b100010000000000000000000000000000000000000000000000000000000001000 X!
b110001000000000000000000000000000000000000000000000000000000000100 Y!
0f!
#1160000
0&
0T
1=!
0W
0)
09
#1165000
1&
1T
0=!
b110001000000000000000000000000000000000000000000000000000000000100 X!
b111000100000000000000000000000000000000000000000000000000000000010 Y!
#1170000
0&
0T
1=!
0(
0V
b11000100000000000000000000000000000000000000000000000000000000010 Y!
#1175000
1&
1T
0=!
b11000100000000000000000000000000000000000000000000000000000000010 X!
b1100010000000000000000000000000000000000000000000000000000000001 Y!
#1180000
0&
0T
1=!
#1185000
1&
1T
0=!
b1100010000000000000000000000000000000000000000000000000000000001 X!
b110001000000000000000000000000000000000000000000000000000000000 Y!
1f!
#1190000
0&
0T
1=!
1W
1)
19
#1195000
1&
1T
0=!
b100011000 ;
b110001000000000000000000000000000000000000000000000000000000000 X!
b11000100000000000000000000000000000000000000000000000000000000 Y!
0f!
#1200000
0&
0T
1=!
1(
1V
b100011000100000000000000000000000000000000000000000000000000000000 Y!
0W
0)
09
#1205000
1&
1T
0=!
b100011000100000000000000000000000000000000000000000000000000000000 X!
b110001100010000000000000000000000000000000000000000000000000000000 Y!
#1210000
0&
0T
1=!
0(
0V
b10001100010000000000000000000000000000000000000000000000000000000 Y!
